<?xml version="1.0" standalone="no"?>
<!DOCTYPE svg PUBLIC "-//W3C//DTD SVG 1.1//EN" "http://www.w3.org/Graphics/SVG/1.1/DTD/svg11.dtd" >
<svg xmlns="http://www.w3.org/2000/svg">
<metadata>Generated by IcoMoon</metadata>
<defs>
<font id="icomoon" horiz-adv-x="1024">
<font-face units-per-em="1024" ascent="960" descent="-64" />
<missing-glyph horiz-adv-x="1024" />
<glyph unicode="&#x20;" horiz-adv-x="512" d="" />
<glyph unicode="&#xe900;" glyph-name="money" d="M40.277 445.269c0 81.92 0 163.84 0 246.443 0 7.509 0 13.653 5.461 19.797 6.144 6.827 12.971 10.923 21.163 11.605 3.413 0.683 7.509 0 11.605 0 19.115-2.048 38.229-4.779 57.344-6.827 10.24-1.365 20.48-2.048 31.403-2.731 58.027-3.413 115.371-4.096 173.397-1.365 25.941 1.365 51.883 2.731 77.824 4.779s52.565 4.779 78.507 6.827c17.067 1.365 34.133 3.413 51.2 4.779 21.845 2.048 43.691 4.096 64.853 5.461 18.432 1.365 36.864 2.731 54.613 4.096 32.085 2.048 64.171 4.096 96.256 4.096 37.547 0 75.093-1.365 112.64-4.779 25.941-2.731 51.2-5.461 77.141-8.192 3.413-0.683 7.509-1.365 10.923-2.731 10.923-3.413 17.067-11.605 18.432-23.211 0.683-5.461 0.683-11.605 0.683-17.067 0-98.304 0-196.608 0-294.912 0-58.709 0-117.419 0-176.811 0-5.461 0-11.605-0.683-17.067-2.048-15.019-10.923-23.893-25.941-24.576-4.779 0-9.557 0-14.336 0.683-26.624 3.413-52.565 6.144-79.189 8.192-47.104 3.413-94.208 4.779-141.312 2.731-32.085-0.683-64.171-2.731-96.256-4.779-26.624-2.048-53.248-4.096-80.555-6.827-28.672-2.731-58.027-6.144-86.699-8.875-20.48-2.048-41.643-3.413-62.123-5.461-33.451-2.731-66.901-4.096-100.352-4.779-34.133-0.683-67.584 0.683-101.035 2.731-31.403 2.048-62.123 4.779-93.525 6.827-9.557 0.683-19.115 1.365-28.672 2.048s-18.432 3.413-25.941 10.923c-4.779 5.461-7.509 10.923-7.509 18.432 0.683 83.968 0.683 167.253 0.683 250.539zM97.621 224.085c4.779-0.683 8.875-1.365 13.653-2.048 9.557-0.683 19.115-2.048 27.989-2.731 35.499-3.413 70.315-5.461 105.813-6.144 31.403 0 63.488 0.683 94.891 2.731 23.211 2.048 45.739 3.413 68.949 5.461 19.797 1.365 39.595 3.413 59.392 4.779 26.624 2.048 53.248 4.779 80.555 6.827 28.672 2.731 56.661 4.096 85.333 6.827 30.037 2.731 60.075 4.096 90.112 4.779 65.536 2.048 130.389-2.048 195.925-8.192 2.048 0 3.413 0 6.144-0.683 2.048 4.779 1.365 8.875 1.365 12.971 0 135.851 0 271.701 0 407.552 0 2.731 0 5.461 0 8.192 0 2.048-0.683 3.413-1.365 5.461-2.048 0-3.413 0.683-5.461 0.683-23.893 2.048-47.104 4.779-70.997 6.144-32.768 2.731-65.536 4.096-98.304 3.413-28.672-0.683-57.344-2.731-86.016-4.096-17.749-1.365-36.181-2.731-53.931-4.096-21.163-2.048-42.325-3.413-63.488-5.461-17.067-1.365-34.816-2.731-51.883-4.779-25.941-2.048-51.883-4.779-78.507-6.827-27.307-2.048-53.931-3.413-81.237-4.779-56.661-1.365-112.64-0.683-167.936 2.731-16.384 0.683-32.085 2.731-48.469 4.096-5.461 0.683-11.605 1.365-17.067 2.048-2.048 0-3.413 0-5.461-0.683-0.683-8.875-0.683-422.571 0-434.176zM470.357 589.995c0 6.827 0 13.653 0 19.797s1.365 11.605 4.096 16.384c6.827 12.971 21.845 18.432 35.499 12.288 9.557-4.096 14.336-11.605 15.019-21.845 0-3.413 0-7.509 0-10.923 0-8.192 4.096-15.019 11.605-19.115 3.413-2.048 6.827-3.413 10.24-4.779 23.211-10.24 36.864-27.989 41.643-51.883 1.365-6.144 2.048-12.971 1.365-19.115-0.683-10.923-5.461-19.115-15.701-23.893-16.384-6.827-32.768 1.365-36.864 18.432-0.683 2.731-0.683 6.144-1.365 8.875-2.731 12.971-8.875 19.115-21.845 21.163-6.144 0.683-12.971 1.365-19.115 1.365-8.875 0-16.384-3.413-22.528-10.24-8.875-9.557-8.192-23.893 2.048-32.085 2.731-2.048 5.461-3.413 8.875-5.461 10.923-5.461 21.163-10.923 32.085-17.067 11.605-6.144 22.528-11.605 34.133-17.749 4.096-2.048 8.192-4.779 12.288-7.509 22.528-16.384 32.085-38.912 30.037-66.219 0-4.096-0.683-8.875-1.365-12.971-5.461-24.576-19.797-42.325-43.008-52.565-3.413-1.365-7.509-2.731-10.923-4.779-6.144-2.731-9.557-8.192-9.557-15.019 0-3.413 0-7.509 0-10.923 0-6.144-2.048-12.288-5.461-17.067-4.779-7.509-11.605-11.605-19.797-11.605-6.144 0-11.605 1.365-16.384 4.096-8.192 4.779-12.288 11.605-12.288 21.845 0 1.365 0.683 3.413 0.683 4.779 0 11.605-4.096 21.163-13.653 27.307-3.413 2.048-6.144 4.096-9.557 5.461-21.845 10.923-33.451 29.355-36.864 53.248-0.683 6.144-1.365 12.288 0 17.749 2.731 12.971 12.971 21.845 26.624 21.845 15.701 0 23.893-10.24 26.624-21.845 0.683-3.413 1.365-6.827 2.048-9.557 2.731-10.24 8.192-16.384 19.115-18.432 8.192-1.365 15.701-2.731 23.893-2.048 7.509 0.683 14.336 3.413 19.797 8.875 10.923 9.557 9.557 24.576-2.048 32.768-4.779 3.413-10.24 6.144-15.701 8.875-15.701 8.192-31.403 15.701-46.421 23.893-6.827 4.096-14.336 7.509-21.163 12.288-21.163 15.019-32.768 35.499-33.451 61.44-0.683 30.72 12.971 53.931 38.912 69.632 4.096 2.731 8.875 4.779 13.653 6.827-0.683 2.731 2.048 4.096 4.779 5.461z" />
<glyph unicode="&#xe901;" glyph-name="dev" d="M367.957 220.672c0 6.144 2.048 12.971 5.461 19.115 10.923 23.893 21.845 48.469 33.451 72.363 57.344 120.832 114.688 242.347 171.349 363.179 1.365 2.731 2.731 6.144 4.096 8.875 5.461 10.923 14.336 18.432 24.576 24.576 10.923 6.144 21.845 4.779 32.085-2.048 7.509-5.461 12.288-12.288 15.019-21.163 2.731-8.192 2.048-15.701-1.365-23.893-3.413-6.827-6.144-14.336-9.557-21.163-66.219-141.312-133.12-283.307-199.339-424.619-2.731-5.461-5.461-11.605-8.875-17.067-12.288-17.749-34.816-21.163-52.565-9.557-8.875 7.509-14.336 17.749-14.336 31.403zM137.216 447.317c2.048-2.048 4.096-4.096 6.827-6.144 35.499-29.355 70.315-58.027 105.813-86.699 8.192-6.827 16.384-13.653 24.576-21.163 4.096-3.413 7.509-7.509 10.24-12.288 7.509-12.288 7.509-24.576-0.683-36.864-11.605-17.749-32.085-21.845-50.517-10.923-3.413 2.048-6.144 4.096-8.875 6.827-54.613 45.056-109.909 90.112-164.523 135.168-3.413 2.731-7.509 6.144-10.24 9.557-12.971 15.019-12.971 32.085 0.683 47.104 2.731 2.731 5.461 5.461 8.192 7.509 55.296 45.056 110.592 90.795 165.888 135.851 6.144 4.779 12.288 8.875 19.797 11.605 15.701 4.779 30.72-1.365 38.912-15.019 3.413-5.461 5.461-10.923 6.144-17.067 1.365-8.875-0.683-17.067-6.144-23.893-4.096-4.779-8.192-8.875-12.971-12.971-33.451-27.307-66.901-54.613-99.669-81.92-10.24-8.192-20.48-17.749-30.72-26.624-0.683 0-1.365-0.683-2.731-2.048zM886.784 448.683c-2.731 2.731-4.779 4.779-7.509 6.827-38.912 31.403-77.141 63.488-116.053 94.891-4.779 4.096-9.557 7.509-13.653 11.605-6.144 4.779-10.923 10.923-12.971 18.432-4.779 14.336-1.365 26.624 8.875 36.864s21.845 13.653 36.181 9.557c6.144-2.048 11.605-5.461 16.384-9.557 25.259-20.48 51.2-40.96 76.459-62.123 30.72-25.259 61.44-50.517 91.477-75.776 3.413-2.731 6.827-5.461 9.557-8.875 12.288-13.653 12.288-31.403 0.683-45.056-2.731-2.731-5.461-5.461-8.192-7.509-57.344-47.104-114.005-93.525-171.349-140.629-2.731-2.048-6.144-4.779-8.875-6.144-15.019-8.192-32.085-4.779-43.691 8.192s-12.971 29.355-3.413 43.691c2.731 4.096 6.827 8.192 10.923 11.605 21.845 18.432 43.691 36.181 66.219 54.613 21.163 17.749 43.008 34.816 62.805 53.248 0.683 1.365 2.731 3.413 6.144 6.144z" />
<glyph unicode="&#xe902;" glyph-name="clock" d="M511.317-40.789c-271.019 0-490.837 220.501-490.837 490.837s219.819 490.837 490.837 490.837 490.837-220.501 490.837-490.837-220.501-490.837-490.837-490.837zM511.317 873.301c-233.472 0-423.253-189.781-423.253-423.253s189.781-423.253 423.253-423.253 423.253 189.781 423.253 423.253-190.464 423.253-423.253 423.253zM471.040 748.373h75.093v-314.027h-75.093v314.027zM471.040 461.653h279.893v-68.267h-279.893v68.267z" />
<glyph unicode="&#xe903;" glyph-name="done" d="M697.685 654.848c3.413 0 5.461 0 6.827 0 53.931 4.096 105.131-5.461 152.917-30.037 87.381-44.373 141.312-116.053 161.109-212.309 28.672-162.475-74.411-307.883-222.549-343.381-47.787-11.605-95.573-10.923-144.043 0.683-1.365 0-2.731 0.683-4.096 1.365-2.731 0.683-6.144 0.683-8.192-1.365-0.683-0.683-2.048-1.365-3.413-2.048-21.163-12.971-44.373-19.797-69.632-19.797-40.277 0-80.555 0-120.149 0-105.813 0-211.627 0-316.757 0-15.019 0-29.355 2.048-43.691 6.827-53.931 17.749-85.333 68.267-86.016 118.101 0 2.048 0 4.779 0 6.827 0 178.859 0 357.717 0 536.576 0 12.971 0.683 25.941 4.096 38.229 12.971 46.421 51.883 84.651 105.131 92.843 7.509 1.365 15.019 1.365 22.528 1.365 144.725 0 288.768 0 433.493 0 19.115 0 38.229-2.731 55.979-10.923 43.008-19.797 68.267-53.248 75.093-100.352 0.683-6.144 1.365-12.971 1.365-19.797 0-17.749 0-34.816 0-52.565-0.683-3.413 0-6.827 0-10.24zM64.853 586.581c-1.365-4.096-0.683-8.192-0.683-12.288 0-130.389 0-261.461 0-391.851 0-3.413 0-7.509 0-10.923 2.731-37.547 32.085-58.027 56.661-60.075 5.461-0.683 10.24-0.683 15.701-0.683 135.851 0 271.701 0 407.552 0 2.731 0 6.144 0 8.875 0 1.365 0 2.048 0.683 4.096 1.365-4.779 3.413-8.192 6.144-11.605 8.875s-7.509 5.461-10.923 8.875c-4.096 3.413-7.509 6.144-10.923 9.557s-6.827 6.144-9.557 9.557c-3.413 3.413-6.144 6.827-9.557 10.24-2.731 3.413-6.144 6.827-8.875 10.24s-5.461 7.509-8.192 10.923c-2.731 3.413-5.461 7.509-8.192 11.605s-5.461 8.192-8.192 12.288c-2.048 4.096-4.779 8.192-6.827 12.288s-4.096 8.192-6.144 12.288c-2.048 4.096-4.096 8.192-5.461 12.288-2.048 4.096-3.413 8.192-5.461 12.971-1.365 4.779-3.413 9.557-4.779 14.336-1.365 4.096-2.731 8.875-4.096 12.971-1.365 4.779-2.048 8.875-3.413 13.653-0.683 4.779-2.048 8.875-2.731 13.653s-1.365 8.875-2.048 13.653c-0.683 4.779-0.683 8.875-1.365 13.653 0 4.779-0.683 9.557-0.683 15.019 0 4.779 0 8.875 0 13.653s0.683 8.875 0.683 13.653c0 4.779 0.683 8.875 1.365 13.653s1.365 8.875 2.048 13.653c0.683 4.779 1.365 8.875 2.731 13.653s2.048 9.557 3.413 14.336c1.365 4.779 2.731 8.875 4.096 12.971s2.731 8.875 4.779 12.971c1.365 4.096 3.413 8.875 5.461 12.971s3.413 8.192 5.461 12.288c2.048 4.779 4.096 8.875 6.827 12.971 2.048 4.096 4.779 8.192 6.827 12.288s4.779 7.509 7.509 11.605c2.731 4.096 5.461 7.509 8.192 11.605 2.731 3.413 5.461 7.509 8.192 10.923s6.144 6.827 8.875 10.24c3.413 3.413 6.827 7.509 10.24 10.923s6.827 6.144 9.557 9.557c3.413 3.413 6.827 5.461 9.557 9.557-0.683 0.683-1.365 1.365-2.048 1.365-154.283 0-308.565 0-462.848 0-1.365 1.365-2.731 1.365-4.096 0.683zM726.357 591.36c-126.293 0-233.472-101.717-233.472-234.155 0-133.12 108.544-233.472 234.155-233.472 126.976 0 232.789 103.083 232.789 233.472 0.683 130.389-104.448 234.155-233.472 234.155zM64.171 652.8c2.048-0.683 3.413-0.683 4.779-0.683 187.051 0 374.101 0 561.152 0 0.683 0 2.048 0.683 3.413 0.683 0 1.365 0.683 3.413 0.683 4.779 0 4.096 0 8.192 0 11.605 0 17.749 0 34.816 0 52.565 0 29.355-21.163 55.979-51.2 61.44-6.144 1.365-12.288 1.365-18.432 1.365-143.36 0-286.037 0-429.397 0-2.731 0-6.144 0-8.875 0-12.971-0.683-24.576-4.779-34.816-12.288-17.067-12.971-25.941-30.037-25.941-51.883 0-20.48 0-41.643 0-62.123-2.048-1.365-1.365-3.413-1.365-5.461zM681.301 308.053c8.192 7.509 15.019 13.653 21.845 20.48 48.469 47.787 96.939 95.573 145.408 143.36 5.461 5.461 10.923 9.557 18.432 11.605 10.923 2.731 21.163 0.683 28.672-7.509 8.192-8.192 9.557-18.432 6.144-29.355-2.048-6.144-5.461-11.605-10.24-16.384-15.701-16.384-32.085-32.085-47.787-48.469-45.739-45.739-91.477-91.477-137.216-136.533-2.731-2.731-6.144-6.144-9.557-8.192-9.557-6.144-19.115-6.144-28.672-0.683-3.413 2.048-6.144 4.779-8.875 7.509-32.768 32.768-65.536 65.536-98.304 98.304-5.461 5.461-9.557 12.288-10.24 20.48-0.683 11.605 3.413 21.163 13.653 27.989 9.557 6.144 19.797 6.827 30.037 1.365 4.096-2.048 7.509-5.461 10.923-8.192 18.432-18.432 36.864-36.864 55.296-55.296 4.779-7.509 12.288-13.653 20.48-20.48z" />
<glyph unicode="&#xe904;" glyph-name="eye" d="M509.269 92.331c-8.192 0-16.384 0-24.576 0.683-83.285 3.413-160.427 23.893-229.376 60.075-91.477 48.469-166.571 121.515-223.232 216.405-10.24 17.067-18.432 34.133-26.624 50.517l-2.048 4.096c-6.827 13.653-6.144 31.403 1.365 43.691 82.603 141.312 184.32 236.203 309.931 289.451 148.139 63.488 299.691 54.613 443.051-24.576 103.083-57.344 186.368-141.995 254.635-260.096 0.683-1.365 1.365-2.048 2.048-3.413l8.192-11.605v-25.941l-5.461-8.192c-5.461-8.192-10.923-17.067-16.384-25.259-12.288-19.115-24.576-38.229-38.229-57.344-63.488-86.016-136.533-148.821-222.549-192.512-71.68-37.547-149.504-55.979-230.741-55.979zM68.949 443.904c6.827-13.653 13.653-27.307 21.163-39.595 51.2-85.333 115.371-148.139 197.291-191.147 60.757-32.085 126.293-49.152 200.704-52.565 78.507-3.413 153.6 12.288 222.549 47.787 76.459 38.912 141.312 95.573 198.656 172.715 12.288 17.067 23.893 34.133 35.499 53.248 2.048 3.413 4.779 6.827 6.827 10.923-61.44 104.448-135.168 179.541-225.963 229.376-125.611 68.949-255.317 76.459-384.341 21.163-109.227-46.421-198.656-129.024-272.384-251.904zM510.635 235.008c-116.736 0-210.944 94.891-210.944 210.944s94.891 210.944 210.944 210.944 210.944-94.891 210.944-210.944-94.208-210.944-210.944-210.944zM510.635 589.995c-79.189 0-144.043-64.853-144.043-144.043s64.853-144.043 144.043-144.043 144.043 64.853 144.043 144.043-64.853 144.043-144.043 144.043z" />
<glyph unicode="&#xe905;" glyph-name="gerente" d="M374.101 301.909c-5.461 15.019-10.923 28.672-16.384 43.008-6.827 17.749-13.653 34.816-20.48 52.565-2.048 5.461-4.779 10.24-8.192 15.019-16.384 21.845-31.403 45.739-41.643 70.997-9.557 23.211-15.019 46.421-15.019 71.68 0 15.019 2.731 30.037 8.192 44.373 2.048 4.779 2.731 9.557 2.048 15.019-2.048 26.624-4.096 53.248-5.461 79.189-1.365 21.163-2.048 43.008 0.683 64.171 4.096 32.768 17.067 61.44 38.229 86.016 34.133 39.595 76.459 65.536 126.976 77.824 36.864 8.875 73.728 10.24 111.275 6.827 29.355-2.731 57.344-10.24 84.651-22.528 33.451-15.701 62.123-37.547 85.333-66.219 21.163-26.624 32.768-56.661 35.499-90.795 1.365-15.701 1.365-30.72 0-46.421-1.365-24.576-3.413-49.835-4.779-74.411-0.683-6.827-2.048-13.653-1.365-19.797 0.683-6.827 4.096-12.971 5.461-19.115 7.509-27.307 6.144-53.931-1.365-80.555-5.461-19.797-13.653-38.912-23.893-56.661-8.192-13.653-17.067-26.624-25.941-39.595-3.413-4.779-6.144-9.557-8.192-15.019-10.923-29.355-22.528-58.709-34.133-88.747-0.683-2.731-2.048-4.779-2.731-8.192 4.096-6.827 8.875-14.336 12.971-21.845 2.048-3.413 4.779-4.096 8.192-5.461 18.432-6.144 36.181-11.605 54.613-17.749 55.296-17.749 109.909-35.499 165.205-52.565 3.413-1.365 6.144-2.048 9.557-3.413 16.384-7.509 22.528-25.941 14.336-41.643-1.365-3.413-4.096-6.144-6.144-9.557-17.067-23.893-36.864-44.373-60.075-62.805-38.229-30.72-80.555-55.296-125.611-74.411-45.739-19.797-92.843-33.451-141.995-42.325-34.133-6.144-68.267-8.192-102.4-6.144-29.355 1.365-58.709 6.827-87.381 13.653-63.488 15.019-123.563 38.229-178.859 72.363-29.355 18.432-57.344 38.912-81.237 64.171-12.288 12.288-22.528 25.941-32.768 39.595-4.779 6.827-7.509 14.336-6.144 22.528 2.048 10.923 7.509 18.432 17.067 23.211 3.413 1.365 6.827 2.731 10.24 4.096 71.68 23.211 143.36 45.739 215.040 68.949 2.048 0.683 4.096 1.365 5.461 2.048 3.413 0.683 5.461 2.731 6.827 5.461 5.461 8.875 9.557 15.701 14.336 23.211zM848.555 157.867c-4.096 1.365-6.827 2.731-10.24 4.096-32.085 10.24-64.171 20.48-96.256 30.72-30.037 9.557-59.392 19.115-89.429 28.672-10.24 3.413-17.749 8.875-23.211 17.749-4.096 6.827-8.875 13.653-12.971 20.48-4.779 8.875-9.557 18.432-14.336 27.989-4.096 8.192-4.096 17.067-0.683 25.259 0.683 2.731 2.048 4.779 2.731 7.509 12.971 34.133 26.624 68.267 39.595 102.4 3.413 8.875 7.509 16.384 12.971 23.893 7.509 10.923 15.701 21.845 22.528 33.451 8.875 14.336 15.701 30.037 19.797 46.421 5.461 20.48 5.461 40.96-4.096 60.757-2.731 4.779-3.413 10.24-3.413 15.701 0.683 10.24 1.365 20.48 2.048 31.403 1.365 25.259 2.731 50.517 4.779 75.776 0.683 12.971 0.683 25.259-0.683 38.229-2.048 20.48-8.875 38.229-21.845 54.613-19.115 23.211-41.643 40.96-69.632 52.565-18.432 7.509-37.547 12.288-57.344 14.336-33.451 4.096-66.219 2.048-98.304-6.827-35.499-9.557-64.853-28.672-88.747-56.661-11.605-13.653-19.115-29.355-23.211-46.421-2.048-10.24-3.413-21.163-2.731-32.085 0.683-16.384 1.365-32.085 2.048-48.469 1.365-21.845 2.731-43.691 4.779-65.536 0.683-10.24 0-19.797-4.096-29.355-2.048-4.779-3.413-10.24-4.779-15.019-3.413-12.971-1.365-25.259 1.365-38.229 3.413-15.701 10.24-30.72 17.749-45.056 8.192-15.019 17.749-28.672 27.989-42.325 2.731-4.096 6.144-8.192 7.509-12.971 15.019-38.229 30.037-77.141 44.373-115.371 2.048-4.779 2.048-8.875 2.731-13.653 0-8.192-2.048-15.701-6.144-23.211-8.192-13.653-16.384-27.307-24.576-40.96-4.779-8.192-10.923-12.971-19.797-15.701-9.557-2.731-18.432-6.144-27.989-8.875-53.931-17.067-108.544-34.816-162.475-51.883-2.731-0.683-5.461-0.683-6.827-4.096 1.365-1.365 2.731-2.731 4.096-4.779 14.336-14.336 30.037-26.624 47.104-38.229 38.912-25.941 79.872-45.739 123.563-60.757 36.864-12.971 75.093-21.163 114.005-25.941 20.48-2.731 40.96-3.413 61.44-2.048 34.133 2.048 67.584 8.192 100.352 17.749 53.931 15.019 105.131 36.864 152.235 68.267 17.749 11.605 34.133 23.893 49.152 38.229 4.096 2.731 6.144 4.779 8.875 8.192z" />
<glyph unicode="&#xe906;" glyph-name="globe" d="M514.731-47.616c-274.432 0-497.664 223.232-497.664 497.664s223.232 497.664 497.664 497.664 497.664-223.232 497.664-497.664-223.232-497.664-497.664-497.664zM514.731 880.128c-236.885 0-430.080-192.512-430.080-430.080s192.512-430.080 430.080-430.080 430.080 192.512 430.080 430.080-193.195 430.080-430.080 430.080zM514.731-47.616c-131.755 0-231.424 213.675-231.424 497.664s99.669 497.664 231.424 497.664 231.424-213.675 231.424-497.664-99.669-497.664-231.424-497.664zM514.731 880.128c-77.141 0-163.157-176.811-163.157-430.080s86.016-430.080 163.157-430.080 163.157 176.811 163.157 430.080-86.016 430.080-163.157 430.080zM75.093 625.493h873.813v-68.267h-873.813v68.267zM75.093 325.12h873.813v-68.267h-873.813v68.267z" />
<glyph unicode="&#xe907;" glyph-name="logo" d="M246.443 448.683c-45.739 36.864-90.112 72.363-134.485 108.544-18.432 15.019-28.672 34.133-27.307 58.027 1.365 21.845 12.971 37.547 29.355 50.517 77.141 62.123 154.965 124.928 232.107 187.051 35.499 28.672 70.997 57.344 107.179 86.016 34.816 27.989 81.237 28.672 116.053 0.683 114.005-91.477 228.011-182.955 342.016-275.115 38.912-32.085 38.229-76.459-0.683-108.544-40.277-32.768-80.555-64.853-120.832-97.621-3.413-2.731-6.827-5.461-10.923-9.557 4.096-4.096 8.192-7.509 12.288-10.923 39.595-32.085 79.189-63.488 118.101-95.573 42.325-34.816 42.325-78.507-0.683-112.64-111.957-90.795-223.915-180.907-336.555-271.019-36.864-29.355-81.92-30.037-118.784 0-112.64 90.112-224.597 180.224-336.555 271.019-43.691 34.816-43.008 79.189 0 114.005 38.229 30.72 76.459 61.44 114.688 92.16 4.096 3.413 8.875 7.509 15.019 12.971zM484.011-3.925c1.365 2.048 2.731 3.413 2.731 4.096 0 85.333 0.683 169.984 0 255.317 0 4.096-4.779 8.875-8.192 11.605-11.605 8.192-22.528 17.067-33.451 25.259-49.152 38.912-98.987 75.776-147.456 114.688-8.875 7.509-14.336 7.509-23.893 0-41.643-34.133-83.968-67.584-125.611-101.717-20.48-16.384-19.797-23.893 0.683-40.277 81.237-65.536 161.792-130.389 243.029-195.925 30.72-23.893 61.44-48.469 92.16-73.045zM486.059 901.291c-4.096-3.413-6.144-4.096-8.192-5.461-110.592-89.429-221.867-178.859-333.141-268.971-15.019-12.288-14.336-21.845 1.365-34.133 42.325-34.133 85.333-68.267 126.976-103.083 10.24-8.192 16.384-8.192 25.941 0 49.835 40.96 99.669 81.237 150.187 120.832 7.509 6.144 23.893 18.432 23.893 18.432 8.875 7.509 14.336 9.557 13.653 17.749-0.683 79.189 0 158.379 0 237.568 0 5.461 0 10.24-0.683 17.067zM537.259-3.925c3.413 1.365 5.461 2.048 6.827 2.731 112.64 90.795 225.28 180.907 337.237 271.701 12.288 10.24 12.288 19.797-1.365 30.72-43.691 35.499-87.381 70.315-131.072 105.813-8.192 6.827-13.653 7.509-21.845 0-29.355-24.576-58.709-48.469-88.747-71.68-29.355-22.528-58.027-45.739-88.747-66.901-8.875-6.144-12.971-10.923-12.971-21.163 0.683-79.189 0-158.379 0-237.568 0-3.413 0-7.509 0.683-13.653zM737.28 480.085c47.104 37.547 92.843 74.411 138.581 111.275 18.432 15.019 18.432 23.211-0.683 38.229-96.939 78.507-194.56 157.013-291.499 234.837-15.019 12.288-30.037 23.893-47.787 37.547 0-9.557 0-15.019 0-19.797 0-74.411 0-149.504 0-223.915 0-21.163 4.779-21.163 14.336-29.355 3.413-2.731 18.432-12.971 23.893-17.749 54.613-43.691 108.544-86.699 163.157-131.072zM324.267 447.317c4.096-2.731 6.144-3.413 8.192-4.779 50.517-40.96 97.621-86.016 151.552-122.197 15.701-10.24 38.912-13.653 56.661 0.683 38.912 31.403 77.824 62.805 116.736 94.208 12.971 10.24 25.941 21.163 40.277 32.768-55.979 44.373-108.544 88.064-163.157 130.389-14.336 11.605-32.768 11.605-47.104 0-53.248-42.325-106.496-85.333-163.157-131.072z" />
<glyph unicode="&#xe908;" glyph-name="plan" d="M122.88 448c0 126.293 0 252.587 0 378.88 0 5.461 0 11.605 0.683 17.067 2.048 18.432 10.923 32.085 27.307 40.96 9.557 5.461 19.797 8.192 30.72 8.192 154.283 0 308.565 0 463.531 0 2.048 0 4.096 0 6.144 0 4.096 0 7.509-1.365 10.923-4.096 7.509-4.779 13.653-10.923 19.797-17.067 49.835-49.835 99.669-99.669 149.504-148.821 19.115-19.115 37.547-37.547 56.661-55.979 6.144-6.144 10.923-13.653 12.288-22.528 0.683-3.413 0.683-7.509 0.683-10.923 0-18.432 0-36.864 0-55.296 0-169.301 0-339.285 0-508.587 0-7.509 0-15.019-2.048-21.845-4.779-22.528-21.163-38.229-43.691-42.325-5.461-0.683-11.605-1.365-17.067-1.365-217.771 0-435.541 0-653.312 0-5.461 0-10.923 0.683-16.384 1.365-25.259 4.096-42.325 21.845-45.739 47.104-0.683 6.144-0.683 12.971-0.683 19.115 0.683 124.928 0.683 250.539 0.683 376.149zM622.592 836.437c-4.779 0-8.192 0.683-10.923 0.683-133.803 0-266.923 0-400.725 0-2.731 0-5.461 0-8.192 0-11.605-1.365-19.115-7.509-22.528-18.432-1.365-5.461-2.048-10.24-2.048-15.701 0-236.203 0-473.088 0-709.291 0-2.731 0-5.461 0-8.192 1.365-14.336 10.923-23.893 25.259-25.259 3.413-0.683 7.509-0.683 10.923-0.683 197.973 0 395.947 0 593.237 0 4.096 0 8.192 0 12.288 0.683 14.336 1.365 22.528 10.24 24.576 23.893 0.683 5.461 0.683 10.923 0.683 16.384 0 166.571 0 333.824 0 500.395 0 2.731 0 5.461 0 8.192 0 2.048-0.683 4.096-0.683 6.144-4.096 0-7.509 0.683-11.605 0.683-58.027 0-116.053 0-173.397 0-5.461 0-10.923 0.683-15.701 1.365-10.923 2.048-17.067 8.875-19.115 19.797-1.365 5.461-1.365 10.923-1.365 15.701 0 57.344 0 114.688 0 171.349 0 3.413-0.683 7.509-0.683 12.288zM679.936 792.747c-0.683-2.048-0.683-2.731-0.683-4.096 0-37.547 0-74.411 0-111.957 0-2.048 0.683-4.096 0.683-5.461 1.365 0 2.731-0.683 3.413-0.683 38.229 0 75.776 0 114.005 0 1.365 0 2.048 0.683 3.413 1.365-8.192 9.557-114.005 115.371-120.832 120.832zM512 242.517c62.123 0 123.563 0 185.685 0 3.413 0 6.827 0 10.24 0 15.019-1.365 25.941-12.288 25.941-26.624 0.683-15.019-11.605-27.307-24.576-27.989-3.413 0-6.827-0.683-10.24-0.683-124.928 0-249.856 0-374.101 0-4.096 0-8.875 0-12.971 0.683-12.288 2.048-21.845 12.971-22.528 25.259s6.827 23.893 19.115 27.989c4.096 1.365 8.875 1.365 12.971 2.048 16.384 0 32.768 0 49.152 0 47.104-0.683 94.208-0.683 141.312-0.683zM512.683 345.6c-62.123 0-124.245 0-186.368 0-3.413 0-7.509 0-10.923 0-19.797 2.048-30.72 21.845-22.528 39.595 4.096 8.875 11.605 13.653 21.163 15.019 2.731 0.683 6.144 0.683 8.875 0.683 126.293 0 252.587 0 379.563 0 2.731 0 5.461 0 8.192 0 13.653-1.365 23.893-13.653 23.893-27.989 0-13.653-10.24-25.259-23.893-26.624-2.731 0-6.144 0-8.875 0-63.488-0.683-126.293-0.683-189.099-0.683zM400.725 503.296c-25.941 0-51.883 0-77.824 0-4.779 0-10.24 0.683-15.019 2.048-12.288 3.413-19.115 14.336-18.432 27.307 0.683 11.605 8.192 21.845 19.797 24.576 4.779 1.365 9.557 1.365 13.653 1.365 51.2 0 103.083 0 154.283 0 4.096 0 8.875-0.683 12.971-1.365 12.288-2.731 20.48-12.971 20.48-25.259 0.683-12.971-6.827-23.211-19.797-27.307-4.779-1.365-10.24-2.048-15.019-2.048-23.893 0.683-49.835 0.683-75.093 0.683z" />
<glyph unicode="&#xe909;" glyph-name="rede" d="M706.56 465.749c-133.803 0-242.347 108.544-242.347 242.347s108.544 242.347 242.347 242.347 242.347-108.544 242.347-242.347-108.544-242.347-242.347-242.347zM706.56 884.907c-97.621 0-176.811-79.189-176.811-176.811s79.189-176.811 176.811-176.811 176.811 79.189 176.811 176.811-79.189 176.811-176.811 176.811zM639.659-56.491c-104.448 0-189.099 84.651-189.099 189.099s84.651 189.099 189.099 189.099 189.099-84.651 189.099-189.099c0-104.448-84.651-189.099-189.099-189.099zM639.659 256.171c-68.267 0-123.563-55.296-123.563-123.563s55.296-123.563 123.563-123.563c68.267 0 123.563 55.296 123.563 123.563 0.683 68.267-55.296 123.563-123.563 123.563zM233.472 293.035c-87.381 0-157.696 70.997-157.696 157.696s70.997 157.696 157.696 157.696c87.381 0 157.696-70.997 157.696-157.696s-70.315-157.696-157.696-157.696zM233.472 543.573c-51.2 0-92.843-41.643-92.843-92.843s41.643-92.843 92.843-92.843 92.843 41.643 92.843 92.843-41.643 92.843-92.843 92.843zM506.475 636.803l31.326-57.567-178.697-97.242-31.326 57.567 178.697 97.242zM356.992 395.448l180.050-140.989-40.403-51.596-180.050 140.989 40.403 51.596z" />
</font></defs></svg>